127.0.0.1 - - [23/Jul/2020:12:51:31 +0530] "GET / HTTP/1.1" 404 1074
0:0:0:0:0:0:0:1 - - [23/Jul/2020:12:51:32 +0530] "GET /RESTAPI/index.jsp HTTP/1.1" 200 495
0:0:0:0:0:0:0:1 - - [23/Jul/2020:13:04:00 +0530] "GET /RESTAPI/index.jsp HTTP/1.1" 200 495
0:0:0:0:0:0:0:1 - - [23/Jul/2020:13:06:09 +0530] "GET /RESTAPI/index.jsp HTTP/1.1" 200 590
127.0.0.1 - - [23/Jul/2020:13:06:41 +0530] "GET /RESTAPI/index.jsp HTTP/1.1" 200 560
0:0:0:0:0:0:0:1 - - [23/Jul/2020:16:56:34 +0530] "GET /RESTAPI/index.jsp HTTP/1.1" 200 560
0:0:0:0:0:0:0:1 - - [23/Jul/2020:16:56:40 +0530] "GET /RESTAPI/webapi/myresource1/registerCompany HTTP/1.1" 500 6864
0:0:0:0:0:0:0:1 - - [23/Jul/2020:16:57:27 +0530] "GET /RESTAPI/webapi/myresource/registerCompany HTTP/1.1" 500 6864
127.0.0.1 - - [23/Jul/2020:17:36:55 +0530] "GET / HTTP/1.1" 404 1074
0:0:0:0:0:0:0:1 - - [23/Jul/2020:17:36:56 +0530] "GET /RESTAPI/index.jsp HTTP/1.1" 200 560
0:0:0:0:0:0:0:1 - - [23/Jul/2020:17:37:01 +0530] "GET /RESTAPI/webapi/myresource1/registerCompany HTTP/1.1" 500 6864
0:0:0:0:0:0:0:1 - - [23/Jul/2020:18:42:42 +0530] "GET /RESTAPI/index.jsp HTTP/1.1" 200 560
0:0:0:0:0:0:0:1 - - [23/Jul/2020:18:42:49 +0530] "GET /RESTAPI/webapi/myresource1/registerCompany HTTP/1.1" 500 6864
0:0:0:0:0:0:0:1 - - [23/Jul/2020:18:42:49 +0530] "GET /RESTAPI/webapi/myresource1/registerCompany HTTP/1.1" 500 6864
0:0:0:0:0:0:0:1 - - [23/Jul/2020:18:42:59 +0530] "GET /RESTAPI/webapi/myresource/registerCompany HTTP/1.1" 500 6864
0:0:0:0:0:0:0:1 - - [23/Jul/2020:18:43:06 +0530] "GET /RESTAPI/webapi/myresource/Hello HTTP/1.1" 500 6864
0:0:0:0:0:0:0:1 - - [23/Jul/2020:18:43:08 +0530] "GET /RESTAPI/webapi/myresource/Hi HTTP/1.1" 500 6864
