127.0.0.1 - - [22/Jul/2020:12:35:38 +0530] "GET / HTTP/1.1" 404 1074
0:0:0:0:0:0:0:1 - - [22/Jul/2020:12:35:41 +0530] "GET /RESTAPI/index.jsp HTTP/1.1" 200 495
0:0:0:0:0:0:0:1 - - [22/Jul/2020:12:35:44 +0530] "GET /RESTAPI/webapi/myresource/Hello HTTP/1.1" 200 27
0:0:0:0:0:0:0:1 - - [22/Jul/2020:12:35:49 +0530] "GET /RESTAPI/webapi/myresource/Hi HTTP/1.1" 200 23
0:0:0:0:0:0:0:1 - - [22/Jul/2020:12:36:05 +0530] "GET /RESTAPI/webapi/myresource1/registerCompany HTTP/1.1" 500 4354
0:0:0:0:0:0:0:1 - - [22/Jul/2020:12:36:05 +0530] "GET /RESTAPI/webapi/myresource1/registerCompany HTTP/1.1" 500 4354
0:0:0:0:0:0:0:1 - - [22/Jul/2020:12:36:36 +0530] "GET /RESTAPI/webapi/myresource1/registerCompany HTTP/1.1" 500 4354
0:0:0:0:0:0:0:1 - - [22/Jul/2020:12:38:28 +0530] "GET /RESTAPI/webapi/myresource/registerEmployee HTTP/1.1" 405 1090
0:0:0:0:0:0:0:1 - - [22/Jul/2020:12:38:31 +0530] "GET /RESTAPI/webapi/myresource/registerCompany HTTP/1.1" 405 1090
